[
  {
    "idUser": 1,
  	"name": "Lucas Dall'Agnol",
  	"login": "lucasdall",
  	"email": "lucas@aloingressos.com.br",
  	"lastLogin": "2017-12-18 18:00:00",
    "disabled": false
  },
  {
    "idUser": 2,
  	"name":"Daniel Hirama",
  	"login":"danisan",
  	"email":"daniel.hirama@aloingressos.com.br",
  	"lastLogin":"2017-12-18 18:00:00",
    "disabled":false
  },
  {
    "idUser": 2,
  	"name":"Daniel Hirama",
  	"login":"danisan",
  	"email":"daniel.hirama@aloingressos.com.br",
  	"lastLogin":"2017-12-18 18:00:00",
    "disabled":false
  },
  {
    "idUser": 2,
  	"name":"Daniel Hirama",
  	"login":"danisan",
  	"email":"daniel.hirama@aloingressos.com.br",
  	"lastLogin":"2017-12-18 18:00:00",
    "disabled":false
  },
  {
    "idUser": 2,
  	"name":"Daniel Hirama",
  	"login":"danisan",
  	"email":"daniel.hirama@aloingressos.com.br",
  	"lastLogin":"2017-12-18 18:00:00",
    "disabled":false
  },
  {
    "idUser": 2,
  	"name":"Daniel Hirama",
  	"login":"danisan",
  	"email":"daniel.hirama@aloingressos.com.br",
  	"lastLogin":"2017-12-18 18:00:00",
    "disabled":false
  },
  {
    "idUser": 2,
  	"name":"Daniel Hirama",
  	"login":"danisan",
  	"email":"daniel.hirama@aloingressos.com.br",
  	"lastLogin":"2017-12-18 18:00:00",
    "disabled":false
  },
  {
    "idUser": 2,
  	"name":"Daniel Hirama",
  	"login":"danisan",
  	"email":"daniel.hirama@aloingressos.com.br",
  	"lastLogin":"2017-12-18 18:00:00",
    "disabled":false
  },
  {
    "idUser": 2,
  	"name":"Daniel Hirama",
  	"login":"danisan",
  	"email":"daniel.hirama@aloingressos.com.br",
  	"lastLogin":"2017-12-18 18:00:00",
    "disabled":false
  },
  {
    "idUser": 2,
  	"name":"Daniel Hirama",
  	"login":"danisan",
  	"email":"daniel.hirama@aloingressos.com.br",
  	"lastLogin":"2017-12-18 18:00:00",
    "disabled":false
  },
  {
    "idUser": 2,
  	"name":"Daniel Hirama",
  	"login":"danisan",
  	"email":"daniel.hirama@aloingressos.com.br",
  	"lastLogin":"2017-12-18 18:00:00",
    "disabled":false
  },
  {
    "idUser": 2,
  	"name":"Daniel Hirama",
  	"login":"danisan",
  	"email":"daniel.hirama@aloingressos.com.br",
  	"lastLogin":"2017-12-18 18:00:00",
    "disabled":false
  },
  {
    "idUser": 2,
  	"name":"Daniel Hirama",
  	"login":"danisan",
  	"email":"daniel.hirama@aloingressos.com.br",
  	"lastLogin":"2017-12-18 18:00:00",
    "disabled":false
  },
  {
    "idUser": 2,
  	"name":"Daniel Hirama",
  	"login":"danisan",
  	"email":"daniel.hirama@aloingressos.com.br",
  	"lastLogin":"2017-12-18 18:00:00",
    "disabled":false
  },
  {
    "idUser": 2,
  	"name":"Daniel Hirama",
  	"login":"danisan",
  	"email":"daniel.hirama@aloingressos.com.br",
  	"lastLogin":"2017-12-18 18:00:00",
    "disabled":false
  },
  {
    "idUser": 2,
  	"name":"Daniel Hirama",
  	"login":"danisan",
  	"email":"daniel.hirama@aloingressos.com.br",
  	"lastLogin":"2017-12-18 18:00:00",
    "disabled":false
  },
  {
    "idUser": 2,
  	"name":"Daniel Hirama",
  	"login":"danisan",
  	"email":"daniel.hirama@aloingressos.com.br",
  	"lastLogin":"2017-12-18 18:00:00",
    "disabled":false
  },
  {
    "idUser": 2,
  	"name":"Daniel Hirama",
  	"login":"danisan",
  	"email":"daniel.hirama@aloingressos.com.br",
  	"lastLogin":"2017-12-18 18:00:00",
    "disabled":false
  },
  {
    "idUser": 2,
  	"name":"Daniel Hirama",
  	"login":"danisan",
  	"email":"daniel.hirama@aloingressos.com.br",
  	"lastLogin":"2017-12-18 18:00:00",
    "disabled":false
  },
  {
    "idUser": 2,
  	"name":"Daniel Hirama",
  	"login":"danisan",
  	"email":"daniel.hirama@aloingressos.com.br",
  	"lastLogin":"2017-12-18 18:00:00",
    "disabled":false
  },
  {
    "idUser": 2,
  	"name":"Daniel Hirama",
  	"login":"danisan",
  	"email":"daniel.hirama@aloingressos.com.br",
  	"lastLogin":"2017-12-18 18:00:00",
    "disabled":false
  },
  {
    "idUser": 2,
  	"name":"Daniel Hirama",
  	"login":"danisan",
  	"email":"daniel.hirama@aloingressos.com.br",
  	"lastLogin":"2017-12-18 18:00:00",
    "disabled":false
  },
  {
    "idUser": 2,
  	"name":"Daniel Hirama",
  	"login":"danisan",
  	"email":"daniel.hirama@aloingressos.com.br",
  	"lastLogin":"2017-12-18 18:00:00",
    "disabled":false
  },
  {
    "idUser": 2,
  	"name":"Daniel Hirama",
  	"login":"danisan",
  	"email":"daniel.hirama@aloingressos.com.br",
  	"lastLogin":"2017-12-18 18:00:00",
    "disabled":false
  }
]
